purple:
R:0.197
G:0.006
B:0.292
-------------
orange:
R:0.292
G:0.141
B:0.089
-------------
green:
R:0.085
G:0.292
B:0.0
-------------
yellow:
R:0.496
G:0.445
B:0.0
-------------
blue:
R:0.0
G:0.178
B:0.292