%YAML 1.1
%TAG !u! tag:unity3d.com,2011:
--- !u!74 &7400000
AnimationClip:
  m_ObjectHideFlags: 0
  m_PrefabParentObject: {fileID: 0}
  m_PrefabInternal: {fileID: 0}
  m_Name: ShowInitialFormText
  serializedVersion: 6
  m_Legacy: 0
  m_Compressed: 0
  m_UseHighQualityCurve: 1
  m_RotationCurves: []
  m_CompressedRotationCurves: []
  m_EulerCurves: []
  m_PositionCurves: []
  m_ScaleCurves:
  - curve:
      serializedVersion: 2
      m_Curve:
      - time: 0
        value: {x: 0, y: 0, z: 0}
        inSlope: {x: 7.4999995, y: 7.4999995, z: 7.4999995}
        outSlope: {x: 7.4999995, y: 7.4999995, z: 7.4999995}
        tangentMode: 0
      - time: 0.13333334
        value: {x: 1, y: 1, z: 1}
        inSlope: {x: 3.7499998, y: 3.7499998, z: 3.7499998}
        outSlope: {x: 3.7499998, y: 3.7499998, z: 3.7499998}
        tangentMode: 0
      - time: 0.3
        value: {x: 1, y: 1, z: 1}
        inSlope: {x: -2.5000002, y: -2.5000002, z: -2.5000002}
        outSlope: {x: -2.5000002, y: -2.5000002, z: -2.5000002}
        tangentMode: 0
      - time: 0.5
        value: {x: 0, y: 0, z: 0}
        inSlope: {x: -5.0000005, y: -5.0000005, z: -5.0000005}
        outSlope: {x: -5.0000005, y: -5.0000005, z: -5.0000005}
        tangentMode: 0
      m_PreInfinity: 2
      m_PostInfinity: 2
      m_RotationOrder: 4
    path: 
  m_FloatCurves:
  - curve:
      serializedVersion: 2
      m_Curve:
      - time: 0
        value: 0
        inSlope: 29.999998
        outSlope: 29.999998
        tangentMode: 10
      - time: 0.033333335
        value: 1
        inSlope: 14.999999
        outSlope: 14.999999
        tangentMode: 10
      - time: 0.46666667
        value: 1
        inSlope: -15.000001
        outSlope: -15.000001
        tangentMode: 10
      - time: 0.5
        value: 0
        inSlope: -30.000002
        outSlope: -30.000002
        tangentMode: 10
      m_PreInfinity: 2
      m_PostInfinity: 2
      m_RotationOrder: 4
    attribute: m_Color.a
    path: InitialFormText
    classID: 114
    script: {fileID: 708705254, guid: f5f67c52d1564df4a8936ccd202a3bd8, type: 3}
  - curve:
      serializedVersion: 2
      m_Curve:
      - time: 0
        value: 15
        inSlope: -30
        outSlope: -30
        tangentMode: 10
      - time: 0.5
        value: 0
        inSlope: -30
        outSlope: -30
        tangentMode: 10
      m_PreInfinity: 2
      m_PostInfinity: 2
      m_RotationOrder: 4
    attribute: m_AnchoredPosition.x
    path: 
    classID: 224
    script: {fileID: 0}
  - curve:
      serializedVersion: 2
      m_Curve:
      - time: 0
        value: 33.3
        inSlope: 193.4
        outSlope: 193.4
        tangentMode: 10
      - time: 0.5
        value: 130
        inSlope: 193.4
        outSlope: 193.4
        tangentMode: 10
      m_PreInfinity: 2
      m_PostInfinity: 2
      m_RotationOrder: 4
    attribute: m_AnchoredPosition.y
    path: 
    classID: 224
    script: {fileID: 0}
  m_PPtrCurves: []
  m_SampleRate: 60
  m_WrapMode: 0
  m_Bounds:
    m_Center: {x: 0, y: 0, z: 0}
    m_Extent: {x: 0, y: 0, z: 0}
  m_ClipBindingConstant:
    genericBindings:
    - path: 0
      attribute: 3
      script: {fileID: 0}
      classID: 4
      customType: 0
      isPPtrCurve: 0
    - path: 577000855
      attribute: 304273561
      script: {fileID: 708705254, guid: f5f67c52d1564df4a8936ccd202a3bd8, type: 3}
      classID: 114
      customType: 0
      isPPtrCurve: 0
    - path: 0
      attribute: 1460864421
      script: {fileID: 0}
      classID: 224
      customType: 0
      isPPtrCurve: 0
    - path: 0
      attribute: 538195251
      script: {fileID: 0}
      classID: 224
      customType: 0
      isPPtrCurve: 0
    pptrCurveMapping: []
  m_AnimationClipSettings:
    serializedVersion: 2
    m_AdditiveReferencePoseClip: {fileID: 0}
    m_AdditiveReferencePoseTime: 0
    m_StartTime: 0
    m_StopTime: 0.5
    m_OrientationOffsetY: 0
    m_Level: 0
    m_CycleOffset: 0
    m_HasAdditiveReferencePose: 0
    m_LoopTime: 0
    m_LoopBlend: 0
    m_LoopBlendOrientation: 0
    m_LoopBlendPositionY: 0
    m_LoopBlendPositionXZ: 0
    m_KeepOriginalOrientation: 0
    m_KeepOriginalPositionY: 1
    m_KeepOriginalPositionXZ: 0
    m_HeightFromFeet: 0
    m_Mirror: 0
  m_EditorCurves:
  - curve:
      serializedVersion: 2
      m_Curve:
      - time: 0
        value: 0
        inSlope: 29.999998
        outSlope: 29.999998
        tangentMode: 10
      - time: 0.033333335
        value: 1
        inSlope: 14.999999
        outSlope: 14.999999
        tangentMode: 10
      - time: 0.46666667
        value: 1
        inSlope: -15.000001
        outSlope: -15.000001
        tangentMode: 10
      - time: 0.5
        value: 0
        inSlope: -30.000002
        outSlope: -30.000002
        tangentMode: 10
      m_PreInfinity: 2
      m_PostInfinity: 2
      m_RotationOrder: 4
    attribute: m_Color.a
    path: InitialFormText
    classID: 114
    script: {fileID: 708705254, guid: f5f67c52d1564df4a8936ccd202a3bd8, type: 3}
  - curve:
      serializedVersion: 2
      m_Curve:
      - time: 0
        value: 15
        inSlope: -30
        outSlope: -30
        tangentMode: 10
      - time: 0.5
        value: 0
        inSlope: -30
        outSlope: -30
        tangentMode: 10
      m_PreInfinity: 2
      m_PostInfinity: 2
      m_RotationOrder: 4
    attribute: m_AnchoredPosition.x
    path: 
    classID: 224
    script: {fileID: 0}
  - curve:
      serializedVersion: 2
      m_Curve:
      - time: 0
        value: 33.3
        inSlope: 193.4
        outSlope: 193.4
        tangentMode: 10
      - time: 0.5
        value: 130
        inSlope: 193.4
        outSlope: 193.4
        tangentMode: 10
      m_PreInfinity: 2
      m_PostInfinity: 2
      m_RotationOrder: 4
    attribute: m_AnchoredPosition.y
    path: 
    classID: 224
    script: {fileID: 0}
  - curve:
      serializedVersion: 2
      m_Curve:
      - time: 0
        value: 0
        inSlope: 7.4999995
        outSlope: 7.4999995
        tangentMode: 10
      - time: 0.13333334
        value: 1
        inSlope: 3.7499998
        outSlope: 3.7499998
        tangentMode: 10
      - time: 0.3
        value: 1
        inSlope: -2.5000002
        outSlope: -2.5000002
        tangentMode: 10
      - time: 0.5
        value: 0
        inSlope: -5.0000005
        outSlope: -5.0000005
        tangentMode: 10
      m_PreInfinity: 2
      m_PostInfinity: 2
      m_RotationOrder: 4
    attribute: m_LocalScale.x
    path: 
    classID: 224
    script: {fileID: 0}
  - curve:
      serializedVersion: 2
      m_Curve:
      - time: 0
        value: 0
        inSlope: 7.4999995
        outSlope: 7.4999995
        tangentMode: 10
      - time: 0.13333334
        value: 1
        inSlope: 3.7499998
        outSlope: 3.7499998
        tangentMode: 10
      - time: 0.3
        value: 1
        inSlope: -2.5000002
        outSlope: -2.5000002
        tangentMode: 10
      - time: 0.5
        value: 0
        inSlope: -5.0000005
        outSlope: -5.0000005
        tangentMode: 10
      m_PreInfinity: 2
      m_PostInfinity: 2
      m_RotationOrder: 4
    attribute: m_LocalScale.y
    path: 
    classID: 224
    script: {fileID: 0}
  - curve:
      serializedVersion: 2
      m_Curve:
      - time: 0
        value: 0
        inSlope: 7.4999995
        outSlope: 7.4999995
        tangentMode: 10
      - time: 0.13333334
        value: 1
        inSlope: 3.7499998
        outSlope: 3.7499998
        tangentMode: 10
      - time: 0.3
        value: 1
        inSlope: -2.5000002
        outSlope: -2.5000002
        tangentMode: 10
      - time: 0.5
        value: 0
        inSlope: -5.0000005
        outSlope: -5.0000005
        tangentMode: 10
      m_PreInfinity: 2
      m_PostInfinity: 2
      m_RotationOrder: 4
    attribute: m_LocalScale.z
    path: 
    classID: 224
    script: {fileID: 0}
  m_EulerEditorCurves: []
  m_HasGenericRootTransform: 0
  m_HasMotionFloatCurves: 0
  m_GenerateMotionCurves: 0
  m_Events: []
