%YAML 1.1
%TAG !u! tag:unity3d.com,2011:
--- !u!74 &7400000
AnimationClip:
  m_ObjectHideFlags: 0
  m_PrefabParentObject: {fileID: 0}
  m_PrefabInternal: {fileID: 0}
  m_Name: RotateRight
  serializedVersion: 6
  m_Legacy: 0
  m_Compressed: 0
  m_UseHighQualityCurve: 1
  m_RotationCurves:
  - curve:
      serializedVersion: 2
      m_Curve:
      - time: 0
        value: {x: 0, y: 0, z: 0, w: 1}
        inSlope: {x: -4.968493, y: 0, z: 0, w: -0.20606874}
        outSlope: {x: -4.968493, y: 0, z: 0, w: -0.20606874}
        tangentMode: 0
      - time: 0.016666668
        value: {x: -0.08280822, y: 0, z: 0, w: 0.9965655}
        inSlope: {x: -4.9514284, y: 0, z: 0, w: -0.41143295}
        outSlope: {x: -4.9514284, y: 0, z: 0, w: -0.41143295}
        tangentMode: 0
      - time: 0.033333335
        value: {x: -0.16504763, y: 0, z: 0, w: 0.98628557}
        inSlope: {x: -4.9003525, y: 0, z: 0, w: -0.8200388}
        outSlope: {x: -4.9003525, y: 0, z: 0, w: -0.8200388}
        tangentMode: 0
      - time: 0.050000004
        value: {x: -0.24615332, y: 0, z: 0, w: 0.9692309}
        inSlope: {x: -4.8156166, y: 0, z: 0, w: -1.2230104}
        outSlope: {x: -4.8156166, y: 0, z: 0, w: -1.2230104}
        tangentMode: 0
      - time: 0.06666667
        value: {x: -0.3255682, y: 0, z: 0, w: 0.94551855}
        inSlope: {x: -4.6978025, y: 0, z: 0, w: -1.6175832}
        outSlope: {x: -4.6978025, y: 0, z: 0, w: -1.6175832}
        tangentMode: 0
      - time: 0.083333336
        value: {x: -0.40274674, y: 0, z: 0, w: 0.91531146}
        inSlope: {x: -4.547718, y: 0, z: 0, w: -2.0010443}
        outSlope: {x: -4.547718, y: 0, z: 0, w: -2.0010443}
        tangentMode: 0
      - time: 0.1
        value: {x: -0.47715878, y: 0, z: 0, w: 0.8788171}
        inSlope: {x: -4.366397, y: 0, z: 0, w: -2.37076}
        outSlope: {x: -4.366397, y: 0, z: 0, w: -2.37076}
        tangentMode: 0
      - time: 0.11666667
        value: {x: -0.5482933, y: 0, z: 0, w: 0.8362861}
        inSlope: {x: -4.1550827, y: 0, z: 0, w: -2.7241921}
        outSlope: {x: -4.1550827, y: 0, z: 0, w: -2.7241921}
        tangentMode: 0
      - time: 0.13333334
        value: {x: -0.61566156, y: 0, z: 0, w: 0.78801066}
        inSlope: {x: -3.9152253, y: 0, z: 0, w: -3.0589087}
        outSlope: {x: -3.9152253, y: 0, z: 0, w: -3.0589087}
        tangentMode: 0
      - time: 0.15
        value: {x: -0.6788008, y: 0, z: 0, w: 0.7343225}
        inSlope: {x: -3.6484752, y: 0, z: 0, w: -3.3726153}
        outSlope: {x: -3.6484752, y: 0, z: 0, w: -3.3726153}
        tangentMode: 0
      - time: 0.16666667
        value: {x: -0.7372774, y: 0, z: 0, w: 0.67559016}
        inSlope: {x: -3.5085943, y: 0, z: 0, w: -3.52394}
        outSlope: {x: -3.5085943, y: 0, z: 0, w: -3.52394}
        tangentMode: 0
      m_PreInfinity: 2
      m_PostInfinity: 2
      m_RotationOrder: 4
    path: 
  m_CompressedRotationCurves: []
  m_EulerCurves: []
  m_PositionCurves: []
  m_ScaleCurves: []
  m_FloatCurves: []
  m_PPtrCurves: []
  m_SampleRate: 60
  m_WrapMode: 0
  m_Bounds:
    m_Center: {x: 0, y: 0, z: 0}
    m_Extent: {x: 0, y: 0, z: 0}
  m_ClipBindingConstant:
    genericBindings:
    - path: 0
      attribute: 2
      script: {fileID: 0}
      classID: 4
      customType: 0
      isPPtrCurve: 0
    - path: 0
      attribute: 3
      script: {fileID: 0}
      classID: 95
      customType: 8
      isPPtrCurve: 0
    - path: 0
      attribute: 6
      script: {fileID: 0}
      classID: 95
      customType: 8
      isPPtrCurve: 0
    - path: 0
      attribute: 4
      script: {fileID: 0}
      classID: 95
      customType: 8
      isPPtrCurve: 0
    - path: 0
      attribute: 5
      script: {fileID: 0}
      classID: 95
      customType: 8
      isPPtrCurve: 0
    pptrCurveMapping: []
  m_AnimationClipSettings:
    serializedVersion: 2
    m_AdditiveReferencePoseClip: {fileID: 0}
    m_AdditiveReferencePoseTime: 0
    m_StartTime: 0
    m_StopTime: 0.16666667
    m_OrientationOffsetY: 0
    m_Level: 0
    m_CycleOffset: 0
    m_HasAdditiveReferencePose: 0
    m_LoopTime: 0
    m_LoopBlend: 0
    m_LoopBlendOrientation: 0
    m_LoopBlendPositionY: 0
    m_LoopBlendPositionXZ: 0
    m_KeepOriginalOrientation: 0
    m_KeepOriginalPositionY: 1
    m_KeepOriginalPositionXZ: 0
    m_HeightFromFeet: 0
    m_Mirror: 0
  m_EditorCurves:
  - curve:
      serializedVersion: 2
      m_Curve:
      - time: 0
        value: 0
        inSlope: -4.968493
        outSlope: -4.968493
        tangentMode: 0
      - time: 0.016666668
        value: -0.08280822
        inSlope: -4.9514284
        outSlope: -4.9514284
        tangentMode: 0
      - time: 0.033333335
        value: -0.16504763
        inSlope: -4.9003525
        outSlope: -4.9003525
        tangentMode: 0
      - time: 0.050000004
        value: -0.24615332
        inSlope: -4.8156166
        outSlope: -4.8156166
        tangentMode: 0
      - time: 0.06666667
        value: -0.3255682
        inSlope: -4.6978025
        outSlope: -4.6978025
        tangentMode: 0
      - time: 0.083333336
        value: -0.40274674
        inSlope: -4.547718
        outSlope: -4.547718
        tangentMode: 0
      - time: 0.1
        value: -0.47715878
        inSlope: -4.366397
        outSlope: -4.366397
        tangentMode: 0
      - time: 0.11666667
        value: -0.5482933
        inSlope: -4.1550827
        outSlope: -4.1550827
        tangentMode: 0
      - time: 0.13333334
        value: -0.61566156
        inSlope: -3.9152253
        outSlope: -3.9152253
        tangentMode: 0
      - time: 0.15
        value: -0.6788008
        inSlope: -3.6484752
        outSlope: -3.6484752
        tangentMode: 0
      - time: 0.16666667
        value: -0.7372774
        inSlope: -3.5085943
        outSlope: -3.5085943
        tangentMode: 0
      m_PreInfinity: 2
      m_PostInfinity: 2
      m_RotationOrder: 4
    attribute: m_LocalRotation.x
    path: 
    classID: 4
    script: {fileID: 0}
  - curve:
      serializedVersion: 2
      m_Curve:
      - time: 0
        value: 0
        inSlope: 0
        outSlope: 0
        tangentMode: 0
      - time: 0.016666668
        value: 0
        inSlope: 0
        outSlope: 0
        tangentMode: 0
      - time: 0.033333335
        value: 0
        inSlope: 0
        outSlope: 0
        tangentMode: 0
      - time: 0.050000004
        value: 0
        inSlope: 0
        outSlope: 0
        tangentMode: 0
      - time: 0.06666667
        value: 0
        inSlope: 0
        outSlope: 0
        tangentMode: 0
      - time: 0.083333336
        value: 0
        inSlope: 0
        outSlope: 0
        tangentMode: 0
      - time: 0.1
        value: 0
        inSlope: 0
        outSlope: 0
        tangentMode: 0
      - time: 0.11666667
        value: 0
        inSlope: 0
        outSlope: 0
        tangentMode: 0
      - time: 0.13333334
        value: 0
        inSlope: 0
        outSlope: 0
        tangentMode: 0
      - time: 0.15
        value: 0
        inSlope: 0
        outSlope: 0
        tangentMode: 0
      - time: 0.16666667
        value: 0
        inSlope: 0
        outSlope: 0
        tangentMode: 0
      m_PreInfinity: 2
      m_PostInfinity: 2
      m_RotationOrder: 4
    attribute: m_LocalRotation.y
    path: 
    classID: 4
    script: {fileID: 0}
  - curve:
      serializedVersion: 2
      m_Curve:
      - time: 0
        value: 0
        inSlope: 0
        outSlope: 0
        tangentMode: 0
      - time: 0.016666668
        value: 0
        inSlope: 0
        outSlope: 0
        tangentMode: 0
      - time: 0.033333335
        value: 0
        inSlope: 0
        outSlope: 0
        tangentMode: 0
      - time: 0.050000004
        value: 0
        inSlope: 0
        outSlope: 0
        tangentMode: 0
      - time: 0.06666667
        value: 0
        inSlope: 0
        outSlope: 0
        tangentMode: 0
      - time: 0.083333336
        value: 0
        inSlope: 0
        outSlope: 0
        tangentMode: 0
      - time: 0.1
        value: 0
        inSlope: 0
        outSlope: 0
        tangentMode: 0
      - time: 0.11666667
        value: 0
        inSlope: 0
        outSlope: 0
        tangentMode: 0
      - time: 0.13333334
        value: 0
        inSlope: 0
        outSlope: 0
        tangentMode: 0
      - time: 0.15
        value: 0
        inSlope: 0
        outSlope: 0
        tangentMode: 0
      - time: 0.16666667
        value: 0
        inSlope: 0
        outSlope: 0
        tangentMode: 0
      m_PreInfinity: 2
      m_PostInfinity: 2
      m_RotationOrder: 4
    attribute: m_LocalRotation.z
    path: 
    classID: 4
    script: {fileID: 0}
  - curve:
      serializedVersion: 2
      m_Curve:
      - time: 0
        value: 1
        inSlope: -0.20606874
        outSlope: -0.20606874
        tangentMode: 0
      - time: 0.016666668
        value: 0.9965655
        inSlope: -0.41143295
        outSlope: -0.41143295
        tangentMode: 0
      - time: 0.033333335
        value: 0.98628557
        inSlope: -0.8200388
        outSlope: -0.8200388
        tangentMode: 0
      - time: 0.050000004
        value: 0.9692309
        inSlope: -1.2230104
        outSlope: -1.2230104
        tangentMode: 0
      - time: 0.06666667
        value: 0.94551855
        inSlope: -1.6175832
        outSlope: -1.6175832
        tangentMode: 0
      - time: 0.083333336
        value: 0.91531146
        inSlope: -2.0010443
        outSlope: -2.0010443
        tangentMode: 0
      - time: 0.1
        value: 0.8788171
        inSlope: -2.37076
        outSlope: -2.37076
        tangentMode: 0
      - time: 0.11666667
        value: 0.8362861
        inSlope: -2.7241921
        outSlope: -2.7241921
        tangentMode: 0
      - time: 0.13333334
        value: 0.78801066
        inSlope: -3.0589087
        outSlope: -3.0589087
        tangentMode: 0
      - time: 0.15
        value: 0.7343225
        inSlope: -3.3726153
        outSlope: -3.3726153
        tangentMode: 0
      - time: 0.16666667
        value: 0.67559016
        inSlope: -3.52394
        outSlope: -3.52394
        tangentMode: 0
      m_PreInfinity: 2
      m_PostInfinity: 2
      m_RotationOrder: 4
    attribute: m_LocalRotation.w
    path: 
    classID: 4
    script: {fileID: 0}
  m_EulerEditorCurves:
  - curve:
      serializedVersion: 2
      m_Curve:
      - time: 0
        value: 0
        inSlope: -570
        outSlope: -570
        tangentMode: 10
      - time: 0.16666667
        value: -95
        inSlope: -570
        outSlope: -570
        tangentMode: 10
      m_PreInfinity: 2
      m_PostInfinity: 2
      m_RotationOrder: 4
    attribute: localEulerAnglesBaked.x
    path: 
    classID: 4
    script: {fileID: 0}
  - curve:
      serializedVersion: 2
      m_Curve:
      - time: 0
        value: 0
        inSlope: 0
        outSlope: 0
        tangentMode: 10
      - time: 0.16666667
        value: 0
        inSlope: 0
        outSlope: 0
        tangentMode: 10
      m_PreInfinity: 2
      m_PostInfinity: 2
      m_RotationOrder: 4
    attribute: localEulerAnglesBaked.y
    path: 
    classID: 4
    script: {fileID: 0}
  - curve:
      serializedVersion: 2
      m_Curve:
      - time: 0
        value: 0
        inSlope: 0
        outSlope: 0
        tangentMode: 10
      - time: 0.16666667
        value: 0
        inSlope: 0
        outSlope: 0
        tangentMode: 10
      m_PreInfinity: 2
      m_PostInfinity: 2
      m_RotationOrder: 4
    attribute: localEulerAnglesBaked.z
    path: 
    classID: 4
    script: {fileID: 0}
  m_HasGenericRootTransform: 1
  m_HasMotionFloatCurves: 0
  m_GenerateMotionCurves: 1
  m_Events: []
